{
    "data": [
        {
            "id": 7,
            "name": "在江洪港无人机应该这样飞！",
            "description": "航拍高手这就给你露几手。",
            "author": "苏苏海味",
            "type": 2,
            "imageUrl": "http://r.photo.store.qq.com/psc?/V547xhag48w5IS4I7n9m0wxiY00vuOOb/45NBuzDIW489QBoVep5mccWOYGm5ZL.uUjNzHbO6j97DQS46HdIhAJMVhvBj5smdADs6ZJqxp5jc4q6r8PQ*w5v*pMdunL2TgyEa8FstbkY!/r",
            "toUrl": "https://mp.weixin.qq.com/s/wjcHnu2On5zW70YgPn4SeQ"
        },
        {
            "id": 6,
            "name": "最靓晚霞",
            "description": "美景如此谁能不醉",
            "author": "pabu",
            "type": 2,
            "imageUrl": "http://r.photo.store.qq.com/psc?/V547xhag48w5IS4I7n9m0wxiY00vuOOb/45NBuzDIW489QBoVep5mcbdfNHCI8wN50DAnNFRq*.z*LJVFgeUMJRJMrjFoIz4BZtE9VJlEJn4f4RS5CxQIwEiS1OTbRw.Iw8evsPHtFPM!/r",
            "toUrl": "https://mp.weixin.qq.com/s/mYaNgteA4cnUKtel_upHfg"
        },
        {
            "id": 5,
            "name": "“压顶”之感",
            "description": "摆渡船开到大船近处",
            "author": "黑揍红",
            "type": 0,
            "imageUrl": "http://r.photo.store.qq.com/psc?/V547xhag48w5IS4I7n9m0wxiY00vuOOb/45NBuzDIW489QBoVep5mceKtb2cOUqIhTOqGoT.RZRY.etzzCalraV9NhWdKSBtgyJEL9oe8JLRgt6zc.nysn1KSq3az1GvE0MDtGlSqmDg!/r",
            "toUrl": "https://mp.weixin.qq.com/s/-7M-SghFAPLGth4U59xj5A"
        },
        {
            "id": 4,
            "name": "神秘的天光鱼市",
            "description": "这个神秘的鱼市天亮就会消失",
            "author": "佚名",
            "type": 2,
            "imageUrl": "http://r.photo.store.qq.com/psc?/V547xhag48w5IS4I7n9m0wxiY00vuOOb/45NBuzDIW489QBoVep5mcZqx2srPI*lYc3bEmC0gc3ihYb50YcJu90CIJp1DjmbwkbWkQu4rPRLe8gXbb9zPArJT0gzYgX2T*N.K9sMp7Cs!/r",
            "toUrl": "https://mp.weixin.qq.com/s/nqUEF5lJ26Al86JkTpx7jw"
        },
        {
            "id": 3,
            "name": "仙裙落霞",
            "description": "海在潮戏落霞，人在心潮澎湃",
            "author": "佚名",
            "type": 0,
            "imageUrl": "http://r.photo.store.qq.com/psc?/V547xhag48w5IS4I7n9m0wxiY00vuOOb/45NBuzDIW489QBoVep5mcWz15tmJ*alLSyvsPVlll4Ypzv1xMYQJgKyWBqKEOdAkYUQjO8wWF5ULjHcc4hsegf.NKq4.FPOqTMnjMPnqTmk!/r",
            "toUrl": "https://mp.weixin.qq.com/s/9DBMYY8DiytWZl1PQK8jYQ"
        },
        {
            "id": 2,
            "name": "创造自己的江湖！",
            "description": "假期结束......",
            "author": "pabu",
            "type": 0,
            "imageUrl": "http://r.photo.store.qq.com/psc?/V547xhag48w5IS4I7n9m0wxiY00vuOOb/45NBuzDIW489QBoVep5mcYYQEn5kk8r4MNCdxBPDf1jmh2RC1x005f*i15n2ssi6slt4a.gGejvOiW44j.Kj4pua*kKI58MEmUZSA6VvbCk!/r",
            "toUrl": "https://mp.weixin.qq.com/s/2TfQhQquRMKuyVATN1Vg_A"
        },
        {
            "id": 1,
            "name": "低角度",
            "description": "小众机位也挺美",
            "author": "李嘉斌",
            "type": 0,
            "imageUrl": "http://r.photo.store.qq.com/psc?/V547xhag48w5IS4I7n9m0wxiY00vuOOb/45NBuzDIW489QBoVep5mccXamQFH1th1N13kwv1HEPyIZZlj20YhxXU8N9g9*pfYqU5z0wQEYcrCdMZBqFQrvVrmoz2P9C.ZOYgbuqixHys!/r",
            "toUrl": "https://mp.weixin.qq.com/s/kr5gQIRww4rzYNwxOPXaNA"
        }
    ],
    "errorCode": 0,
    "errorMsg": ""
}