{
  "errorCode": 0,
  "errorMsg": "",


  "data": {

    "month":11,

    "list":[
      {

        "sunrise":"06:43:50",
        "sunset":"18:05:38",

        "ID": "5201370747092985595",
        "RecordTime": "2021-07-23 03:25:23",
        "ReportID": "4902257605263630611",
        "Day": 1,
        "a0": 170,
        "a1": 161,
        "a2": 172,
        "a3": 197,
        "a4": 226,
        "a5": 249,
        "a6": 262,
        "a7": 266,
        "a8": 263,
        "a9": 257,
        "a10": 255,
        "a11": 261,
        "a12": 281,
        "a13": 313,
        "a14": 357,
        "a15": 405,
        "a16": 445,
        "a17": 468,
        "a18": 468,
        "a19": 446,
        "a20": 406,
        "a21": 353,
        "a22": 298,
        "a23": 249,

        "cs0": "00:56",
        "cg0": 161,
        "cs1": "07:00",
        "cg1": 266,
        "cs2": "09:51",
        "cg2": 255,
        "cs3": "17:30",
        "cg3": 471,
        "cs4": null,
        "cg4": null,
        "cs5": null,
        "cg5": null
      },
      {

        "sunrise":"06:44:20",
        "sunset":"18:05:06",


        "ID": "5189094512032329352",
        "RecordTime": "2021-07-23 03:41:57",
        "ReportID": "5457332861701602828",
        "Day": 2,
        "a0": 139,
        "a1": 142,
        "a2": 150,
        "a3": 158,
        "a4": 162,
        "a5": 164,
        "a6": 171,
        "a7": 186,
        "a8": 200,
        "a9": 212,
        "a10": 226,
        "a11": 245,
        "a12": 263,
        "a13": 274,
        "a14": 281,
        "a15": 283,
        "a16": 275,
        "a17": 257,
        "a18": 236,
        "a19": 219,
        "a20": 205,
        "a21": 188,
        "a22": 174,
        "a23": 168,
        "cs0": "14:44",
        "cg0": 283,
        "cs1": "23:05",
        "cg1": 168,
        "cs2": null,
        "cg2": null,
        "cs3": null,
        "cg3": null,
        "cs4": null,
        "cg4": null,
        "cs5": null,
        "cg5": null
      }

    ]
  }
}
