{
  "data": [
    {
      "id": 4,
      "name": "主播口中的江洪镇",
      "description": "7天江洪旅游全攻略",
      "author": "黑揍红",
      "type": 1,
      "imageUrl": "http://r.photo.store.qq.com/psc?/V547xhag48w5IS4I7n9m0wxiY03csTbA/45NBuzDIW489QBoVep5mcZgeh3TSlG42Iv34euv8PDCvY6Y49kIDYZ1NTg6V6Vz1e0jyFPb1Msqvvefb*Q4wmAWhpoRrQfZmq9d0YguWo9Y!/r",
      "toUrl": "https://mp.weixin.qq.com/s/67rM6-06HsI1kfJwOdEcwA"
    },
    {
      "id": 3,
      "name": "主播口中的仙裙岛",
      "description": "“离陆地最近”的海岛",
      "author": "黑揍红",
      "type": 1,
      "imageUrl": "http://r.photo.store.qq.com/psc?/V547xhag48w5IS4I7n9m0wxiY03csTbA/45NBuzDIW489QBoVep5mcRg27S4bh9JbIhr*XlxN2zfsJsILxh2.CSwuTSZrcUQlFDZl5vsuuYyMCo6nx.FWRbDJii9hgC6fqxx0jie80YM!/r",
      "toUrl": "https://mp.weixin.qq.com/s/hbDeImZKjBXV5hk7odUGmw"
    },
    {
      "id": 2,
      "name": "自驾江洪1日游",
      "description": "自驾游攻略",
      "author": "湛江豪哥",
      "type": 0,
      "imageUrl": "http://r.photo.store.qq.com/psc?/V547xhag48w5IS4I7n9m0wxiY03csTbA/45NBuzDIW489QBoVep5mcQTeAAs61.Q2X5*2EhaX*hdveb8yPBjzQGuKeh*2SzWDJHRA62In3UTHWZjSqqkCEL*xeWZ3HwRdfz9*W9DJ64o!/r",
      "toUrl": "https://mp.weixin.qq.com/s/X6xMUKMuxBGSKpS8dCpS8g"
    },
    {
      "id": 1,
      "name": "7天江洪游「旅游攻略」",
      "description": "我的江洪旅游全攻略",
      "author": "芒果茶",
      "type": 0,
      "imageUrl": "http://r.photo.store.qq.com/psc?/V547xhag48w5IS4I7n9m0wxiY03csTbA/45NBuzDIW489QBoVep5mcaXoWHN.eiRILG6Yuip4MQ.PyurQMaZ5ykwrI9OTwbGZ5p*LdkHPRy5pIhmW9IgKxqJOvot00I8C598IRSs2ssY!/r",
      "toUrl": "https://mp.weixin.qq.com/s/wHqjYj80y2TUadxVkQtZiw"
    }
  ],
  "errorCode": 0,
  "errorMsg": ""
}